Training/RFW/test_CLKDIVC.vcd
$date
	Tue Jul 23 00:39:26 2019
$end
$version
	ModelSim Version 10.5b
$end
$timescale
	1ps
$end

$scope module test_clkdivc $end
$var wire 1 ! e_clk $end
$var wire 1 " s_clk $end
$var wire 1 # rst $end
$var wire 1 $ word_align $end
$var wire 1 % cDiv1_open $end
$upscope $end
$enddefinitions $end
#0
$dumpvars
1!
0"
1#
0$
x%
$end
#50
0!
#100
1!
#150
0!
#200
1!
0#
#250
0!
#300
1!
#350
0!
#400
1!
1"
1%
#450
0!
0%
#500
1!
1%
#550
0!
0%
#600
1!
1%
0"
#650
0!
0%
#700
1!
1%
#750
0!
0%
#800
1!
1%
1"
#850
0!
0%
#900
1!
1%
#950
0!
0%
#1000
1!
1%
0"
#1050
0!
0%
1$
#1100
1!
1%
#1150
0!
0%
0$
#1200
1!
1%
#1250
0!
0%
#1300
1!
1%
1"
#1350
0!
0%
#1400
1!
1%
#1450
0!
0%
#1500
1!
1%
0"
#1550
0!
0%
1$
#1600
1!
1%
#1650
0!
0%
0$
#1700
1!
1%
1"
#1750
0!
0%
#1800
1!
1%
#1850
0!
0%
#1900
1!
1%
0"
#1950
0!
0%
#2000
1!
1%
#2050
0!
0%
#2100
1!
1%
1"
#2150
0!
0%
#2200
1!
1%
#2250
0!
0%
#2300
1!
1%
0"
#2350
0!
0%
#2400
1!
1%
#2450
0!
0%
#2500
1!
1%
1"
#2550
0!
0%
#2600
1!
1%
1$
#2650
0!
0%
#2700
1!
1%
0"
#2750
0!
0%
#2800
1!
1%
0$
#2850
0!
0%
#2900
1!
1%
#2950
0!
0%
#3000
1!
1%
1"
#3050
0!
0%
#3100
1!
1%
#3150
0!
0%
#3200
1!
1%
0"
#3250
0!
0%
#3300
1!
1%
#3350
0!
0%
#3400
1!
1%
1"
#3450
0!
0%
#3500
1!
1%
1$
#3550
0!
0%
#3600
1!
1%
0"
#3650
0!
0%
#3700
1!
1%
0$
#3750
0!
0%
#3800
1!
1%
1"
#3850
0!
0%
#3900
1!
1%
#3950
0!
0%
#4000
1!
1%
0"
#4050
0!
0%
1$
#4100
1!
1%
#4150
0!
0%
0$
#4200
1!
1%
#4250
0!
0%
#4300
1!
1%
1"
#4350
0!
0%
#4400
1!
1%
#4450
0!
0%
#4500
1!
1%
0"
#4550
0!
0%
#4600
1!
1%
#4650
0!
0%
#4700
1!
1%
1"
#4750
0!
0%
#4800
1!
1%
#4850
0!
0%
#4900
1!
1%
0"
#4950
0!
0%
1$
#5000
1!
1%
#5050
0!
0%
0$
#5100
1!
1%
1"
#5150
0!
0%
#5200
1!
1%
#5250
0!
0%
#5300
1!
1%
0"
#5350
0!
0%
#5400
1!
1%
#5450
0!
0%
#5500
1!
1%
1"
#5550
0!
0%
#5600
1!
1%
#5650
0!
0%
#5700
1!
1%
0"
1$
#5750
0!
0%
#5800
1!
1%
#5850
0!
0%
#5900
1!
1%
1"
0$
#5950
0!
0%
#6000
1!
1%
#6050
0!
0%
#6100
1!
1%
0"
#6150
0!
0%
#6200
1!
1%
#6250
0!
0%
#6300
1!
1%
1"
1$
#6350
0!
0%
#6400
1!
1%
#6450
0!
0%
#6500
1!
1%
0"
0$
#6550
0!
0%
#6600
1!
1%
#6650
0!
0%
#6700
1!
1%
1"
#6750
0!
0%
#6800
1!
1%
$dumpoff
x!
x"
x#
x$
x%
$end
